<svg width="16" height="16" viewBox="0 0 16 16" xmlns="http://www.w3.org/2000/svg">
  <path fill-rule="evenodd" clip-rule="evenodd" d="M2.435.4a.6.6 0 0 1 1.13 0l.437 1.233a.6.6 0 0 0 .365.365l1.234.437a.6.6 0 0 1 0 1.13l-1.234.437a.6.6 0 0 0-.365.365L3.565 5.6a.6.6 0 0 1-1.13 0l-.437-1.234a.6.6 0 0 0-.365-.365L.4 3.565a.6.6 0 0 1 0-1.13l1.234-.437a.6.6 0 0 0 .365-.365L2.435.4ZM7 1.75A.75.75 0 0 1 7.75 1H13a3 3 0 0 1 3 3v6a3 3 0 0 1-3 3H4.063L1.28 15.78A.75.75 0 0 1 0 15.25v-8.5a.75.75 0 0 1 1.5 0v6.69l1.723-1.72.22-.22H13a1.5 1.5 0 0 0 1.5-1.5V4A1.5 1.5 0 0 0 13 2.5H7.75A.75.75 0 0 1 7 1.75Zm1.47 3.098a.5.5 0 0 0-.94 0l-.365 1.029a.5.5 0 0 1-.304.304l-1.028.364a.5.5 0 0 0 0 .941l1.028.365a.5.5 0 0 1 .304.304l.364 1.028a.5.5 0 0 0 .942 0l.364-1.028a.5.5 0 0 1 .304-.304l1.028-.365a.5.5 0 0 0 0-.941L9.14 6.18a.5.5 0 0 1-.304-.304l-.364-1.029Z"
        fill="#B2B1B2"/>
</svg>
